%YAML 1.1
%TAG !u! tag:unity3d.com,2011:
--- !u!74 &7400000
AnimationClip:
  m_ObjectHideFlags: 0
  m_CorrespondingSourceObject: {fileID: 0}
  m_PrefabInstance: {fileID: 0}
  m_PrefabAsset: {fileID: 0}
  m_Name: TitleFrugAnimation
  serializedVersion: 6
  m_Legacy: 0
  m_Compressed: 0
  m_UseHighQualityCurve: 1
  m_RotationCurves: []
  m_CompressedRotationCurves: []
  m_EulerCurves: []
  m_PositionCurves: []
  m_ScaleCurves: []
  m_FloatCurves: []
  m_PPtrCurves:
  - curve:
    - time: 0
      value: {fileID: -3776625583062234589, guid: b12dd66244671fe40ad05b48058860d6,
        type: 3}
    - time: 0.25
      value: {fileID: -1256595767315331575, guid: b12dd66244671fe40ad05b48058860d6,
        type: 3}
    - time: 0.5
      value: {fileID: -5294694362120109311, guid: b12dd66244671fe40ad05b48058860d6,
        type: 3}
    - time: 0.75
      value: {fileID: 2428121038830973446, guid: b12dd66244671fe40ad05b48058860d6,
        type: 3}
    - time: 1
      value: {fileID: -3256777464207231848, guid: b12dd66244671fe40ad05b48058860d6,
        type: 3}
    - time: 1.25
      value: {fileID: 3992261541222933836, guid: b12dd66244671fe40ad05b48058860d6,
        type: 3}
    - time: 1.5
      value: {fileID: -5071930391572310881, guid: b12dd66244671fe40ad05b48058860d6,
        type: 3}
    - time: 1.75
      value: {fileID: 9025387193709052376, guid: b12dd66244671fe40ad05b48058860d6,
        type: 3}
    attribute: m_Sprite
    path: 
    classID: 212
    script: {fileID: 0}
  m_SampleRate: 4
  m_WrapMode: 0
  m_Bounds:
    m_Center: {x: 0, y: 0, z: 0}
    m_Extent: {x: 0, y: 0, z: 0}
  m_ClipBindingConstant:
    genericBindings:
    - serializedVersion: 2
      path: 0
      attribute: 0
      script: {fileID: 0}
      typeID: 212
      customType: 23
      isPPtrCurve: 1
    pptrCurveMapping:
    - {fileID: -3776625583062234589, guid: b12dd66244671fe40ad05b48058860d6, type: 3}
    - {fileID: -1256595767315331575, guid: b12dd66244671fe40ad05b48058860d6, type: 3}
    - {fileID: -5294694362120109311, guid: b12dd66244671fe40ad05b48058860d6, type: 3}
    - {fileID: 2428121038830973446, guid: b12dd66244671fe40ad05b48058860d6, type: 3}
    - {fileID: -3256777464207231848, guid: b12dd66244671fe40ad05b48058860d6, type: 3}
    - {fileID: 3992261541222933836, guid: b12dd66244671fe40ad05b48058860d6, type: 3}
    - {fileID: -5071930391572310881, guid: b12dd66244671fe40ad05b48058860d6, type: 3}
    - {fileID: 9025387193709052376, guid: b12dd66244671fe40ad05b48058860d6, type: 3}
  m_AnimationClipSettings:
    serializedVersion: 2
    m_AdditiveReferencePoseClip: {fileID: 0}
    m_AdditiveReferencePoseTime: 0
    m_StartTime: 0
    m_StopTime: 2
    m_OrientationOffsetY: 0
    m_Level: 0
    m_CycleOffset: 0
    m_HasAdditiveReferencePose: 0
    m_LoopTime: 1
    m_LoopBlend: 0
    m_LoopBlendOrientation: 0
    m_LoopBlendPositionY: 0
    m_LoopBlendPositionXZ: 0
    m_KeepOriginalOrientation: 0
    m_KeepOriginalPositionY: 1
    m_KeepOriginalPositionXZ: 0
    m_HeightFromFeet: 0
    m_Mirror: 0
  m_EditorCurves: []
  m_EulerEditorCurves: []
  m_HasGenericRootTransform: 0
  m_HasMotionFloatCurves: 0
  m_Events: []
